%YAML 1.1
%TAG !u! tag:unity3d.com,2011:
--- !u!114 &11400000
MonoBehaviour:
  m_ObjectHideFlags: 0
  m_CorrespondingSourceObject: {fileID: 0}
  m_PrefabInstance: {fileID: 0}
  m_PrefabAsset: {fileID: 0}
  m_GameObject: {fileID: 0}
  m_Enabled: 1
  m_EditorHideFlags: 0
  m_Script: {fileID: 11500000, guid: b2b1e74ef4a73ec498858376427bc88c, type: 3}
  m_Name: LittleDoge
  m_EditorClassIdentifier: 
  ID: 18512
  baseVal: 20
  baseGpuVal: 0
  baseCost: 25000
  isUnlocked: 0
  UnlockedByDefault: 0
  isAutomaticDps: 1
  type: 2
  InfoText: 'dps: {v}'
  costExpFactor: 0.008
  valExpFactor: 15
  level: 1
