%YAML 1.1
%TAG !u! tag:unity3d.com,2011:
--- !u!114 &11400000
MonoBehaviour:
  m_ObjectHideFlags: 0
  m_CorrespondingSourceObject: {fileID: 0}
  m_PrefabInstance: {fileID: 0}
  m_PrefabAsset: {fileID: 0}
  m_GameObject: {fileID: 0}
  m_Enabled: 1
  m_EditorHideFlags: 0
  m_Script: {fileID: 11500000, guid: 5f0ccdf95e2b3f14291e69e5c324d965, type: 3}
  m_Name: GPU 2
  m_EditorClassIdentifier: 
  ID: 18290
  reset: 0
  Active: 0
  Locked: 1
  UnlockCost: 1e+12
  rebuyCost: 1e+11
  dps: 7.5e+9
  BaseDuration: 100
  BaseEfficency: 100
  CurrDuration: 100
  DurationToRemove: 1
  DurationMul: 1
  efficencyMul: 1
